   Helicopter EC130-B4
   -------------------

   Registration: HB-ZIN
   C/N: 3648 (2002)
   Operator: Heli Alps SA
   Location: Sion, CH


   WEB-Link: http://www.helialps.ch/


   last update: 2014-03-02
